{
  // Define the web port to listen on for the http interface
  "webPort" : 8090,
  // Put Static / Web pages here when if needed
  "webRoot" : "webroot/",
  // All values starting with /mnt/nas01/stgcloud9/sf/customers/predictive are configurable and should point to the DS scripts and env
  "customerYamlConfigFormat" : "/mnt/nas01/stgcloud9/sf/customers/predictive/%s_%s/predictive_service.yaml",
  // JMS specific quese that ADS and Predictive Service communicate over
  "jms.listen.queue" : "C9.predictive.command.queue",
  "jms.send.queue" : "C9.predictive.wait.queue",
  // This one you know about
  "activeMQHost" : "failover://(tcp://stgmsgr1.prod.cloud9analytics.com:61616?keepAlive=true)",
  // The Stored Proc SQL to update scores out of a refresh cycle
  "scoreStoredProcUpdateTemplate":"execute IntegrateOpportunityScore(FilePath='%s', FileDefinitionPath='%s' %s);",
  // The Stored Proc SQL to update duration scores out of a refresh cycle
  "durationScoreStoredProcUpdateTemplate":"execute IntegrateDurationModelScore(FilePath='%s', FileDefinitionPath='%s' %s);",
  // The base location for the loader dir - used to get the customer credentials to access SFDC
  "base.loader.dir.format" : "/mnt/nas01/stgcloud9/sf/customers/loader/%s_%s/%s",
  // Location of table definitions for OpportunityScoresV3_Base.csv and DurationModelScores_Base.csv
  "tableDefinitionLocation" : "/mnt/nas01/stgcloud9/sf/installations/services/predict_svc/latestPredSVC/resources/",
  // All the scoring (DS Team) related configuration
  "scoreEngine" :
  {
    // Should point to anaconda installation - change accordingly
    "pythonExecutable" : "/mnt/nas01/stgcloud9/sf/installations/infrastructure_svc/anaconda/latest/bin/python",
    // Should point to DS scripts - change accordingly
    "pythonScript" : "/mnt/nas01/stgcloud9/sf/installations/predictive/latestPredict/probwin_fit_score.py",
    // Should point to DS scripts - change accordingly
    "pythonDurationScript" : "/mnt/nas01/stgcloud9/sf/installations/predictive/latestPredict/duration_fit_score.py",
    // Should point to DS scripts - change accordingly
    "loggingConfig" : "/mnt/nas01/stgcloud9/sf/installations/predictive/latestPredict/resources/logging.config",
    // Should point to customer base location - change accordingly
    "predictiveBaseDir" : "/mnt/nas01/stgcloud9/sf/customers/predictive/",
    // Root of the Predictive Scripts
    "predictiveHome" : "/mnt/nas01/stgcloud9/sf/installations/predictive/latestPredict",
    // Location of the wrapper script used to export needed env variables for the python process.
    "pipelineWrapper" : "/mnt/nas01/stgcloud9/sf/installations/services/predict_svc/latestPredSVC/run/pipeline_score.sh",
    // This can be changed to point to a local disk instead of t=a shared volumne - if there is space to accomidate.
    "dataExtractLocationFormat" : "/mnt/nas01/stgcloud9/sf/customers/predictive/%s_%s/open/",
    "scoreFileName" : "OpportunityScoresV3",
    "durationFileName" : "DurationModelScores"
  },
  // The settings for the emailing
  "emailModule":
  {
    "identifier" : "io.vertx~mod-mailer~2.0.0-final",
    "instances" : 1,
    "mailTemplateLocation" : "/mnt/nas01/stgcloud9/sf/installations/services/predict_svc/latestPredSVC/resources/mail/",
    "notifications.to.email.address" : "dl.qe-pass@c9inc.com",
    "notifications.cc.email.address" : "carter.youngblood@c9inc.com",
    // Change this from address to distinguish between the different PODS
    "notifications.from.email.address" : "stg-predictive-services@c9inc.com",
    "config" :
    {
      "address" : "c9.emailer",
      "host": "mailrelay.prod.cloud9analytics.com",
      "content_type" : "text/html"
     }
  },

  // Data Services / JDBC configuration
  "dataServices" :
  {
    "version" : "com.c9~data-services~1.5",
    // THe evenbus address
    "address" : "predictive.jdbc.stgservices6",
    "macURL": "jdbc:certive://stgmac1:5432/NW;SSL=false;username='su';password='password'",
    "workQueueVersion" : "com.c9~workqueue~1.2",
    "enableMetrics" : false,
    // The longest time to take when making a JDBC call - 20 minutes = 1200000
    "defaultJdbcTimeout" :  1200000,
    // When the processor should be returned to the work queue - longer than JDBC > 20 minutes = 1210000
    "processorTimeout" : 1210000,
    // Translates into concurrent jdbc connections
    "defaultProcessors" : 1,
    // Setup dl for data services
    "alert.to.email.address":"dl.qe-pass@c9inc.com",
    "alert.from.email.address":"stg-predictive-services@c9inc.com",
    "query.timeout.emailSubject":"STG: Query Timeout for %s(%s)",
    "query.exception.emailSubject":"STG: Query Exception for %s (%s)"
  }
}
